<?xml version="1.0" standalone="no"?>
<!DOCTYPE svg PUBLIC "-//W3C//DTD SVG 20010904//EN"
 "http://www.w3.org/TR/2001/REC-SVG-20010904/DTD/svg10.dtd">
<svg version="1.0" xmlns="http://www.w3.org/2000/svg"
 width="384.000000pt" height="384.000000pt" viewBox="0 0 384.000000 384.000000"
 preserveAspectRatio="xMidYMid meet">
<metadata>
Created by potrace 1.11, written by Peter Selinger 2001-2013
</metadata>
<g transform="translate(0.000000,384.000000) scale(0.100000,-0.100000)"
fill="#000000" stroke="none">
<path d="M1797 3764 c-6 -11 -27 -14 -117 -17 -25 -1 -47 -5 -50 -8 -3 -4 -23
-9 -45 -12 -22 -2 -47 -7 -55 -11 -15 -6 -52 -14 -105 -23 -16 -3 -35 -9 -41
-14 -6 -5 -19 -10 -30 -12 -22 -5 -46 -13 -89 -32 -16 -8 -33 -11 -37 -9 -4 3
-8 0 -8 -6 0 -7 -7 -10 -15 -6 -8 3 -15 1 -15 -4 0 -8 -19 -17 -45 -21 -5 -1
-15 -9 -22 -18 -7 -9 -13 -12 -13 -8 0 4 -20 -4 -43 -18 -24 -14 -47 -22 -52
-17 -4 4 -5 2 -1 -5 4 -7 -3 -14 -16 -19 -13 -4 -25 -10 -28 -13 -3 -4 -28
-21 -55 -38 -28 -18 -60 -41 -72 -53 -13 -11 -26 -21 -30 -22 -10 -3 -40 -27
-64 -52 -11 -11 -19 -17 -19 -14 0 3 -29 -23 -65 -59 -36 -35 -65 -66 -65 -68
0 -2 -12 -16 -27 -32 -53 -55 -103 -114 -120 -144 -9 -16 -21 -29 -25 -29 -4
0 -8 -7 -8 -15 0 -8 -4 -15 -10 -15 -5 0 -12 -11 -16 -25 -3 -14 -10 -25 -15
-25 -5 0 -9 -7 -9 -15 0 -8 -4 -15 -10 -15 -5 0 -10 -6 -10 -13 0 -7 -8 -22
-18 -33 -9 -10 -19 -28 -20 -39 -2 -11 -8 -22 -13 -23 -5 -2 -7 -8 -3 -13 3
-5 0 -9 -6 -9 -6 0 -8 -5 -5 -10 3 -6 -1 -13 -9 -16 -9 -3 -14 -10 -11 -14 3
-5 -4 -25 -15 -44 -11 -20 -19 -39 -19 -42 1 -2 -3 -17 -9 -32 -13 -36 -19
-55 -20 -65 0 -4 -8 -19 -17 -33 -9 -13 -13 -29 -10 -34 3 -6 3 -16 -2 -22 -4
-7 -8 -17 -10 -23 -1 -5 -5 -21 -8 -35 -3 -14 -8 -32 -10 -40 -2 -8 -4 -15 -5
-15 -2 0 -11 -68 -12 -97 -1 -16 -4 -28 -8 -28 -3 0 -6 -10 -7 -22 0 -13 -1
-51 -2 -86 -1 -45 -4 -61 -13 -56 -7 5 -8 3 -2 -7 12 -20 12 -129 -1 -129 -7
0 -7 -3 0 -8 6 -4 11 -35 12 -70 0 -34 3 -65 7 -69 3 -3 0 -13 -7 -21 -9 -13
-9 -14 1 -8 7 4 12 2 13 -6 0 -7 2 -21 4 -30 2 -10 -2 -18 -8 -18 -7 0 -5 -5
3 -10 8 -5 12 -10 8 -10 -4 0 0 -16 8 -36 8 -20 10 -33 5 -29 -8 4 -8 -2 -1
-20 5 -14 12 -36 14 -48 3 -12 9 -36 15 -54 5 -17 7 -34 3 -37 -3 -3 -1 -6 5
-6 5 0 10 -6 11 -12 3 -36 8 -54 16 -59 5 -4 10 -17 11 -30 2 -13 15 -48 30
-77 14 -29 27 -61 28 -72 1 -10 4 -17 7 -15 11 7 42 -74 34 -86 -4 -8 -3 -9 4
-5 7 4 17 -4 24 -21 7 -15 20 -33 28 -40 8 -7 11 -13 7 -13 -7 0 15 -37 45
-75 54 -68 76 -100 72 -106 -2 -4 5 -10 16 -14 11 -3 20 -10 20 -15 0 -5 10
-19 23 -32 12 -13 33 -37 47 -53 14 -17 44 -47 67 -67 23 -20 39 -39 35 -42
-3 -3 0 -6 7 -6 13 0 25 -9 71 -52 15 -16 31 -28 35 -28 6 0 23 -13 56 -43 10
-9 21 -17 24 -17 16 0 104 -68 97 -75 -4 -5 -2 -5 5 -1 12 7 86 -27 78 -36 -3
-3 1 -5 8 -5 6 0 44 -15 82 -33 151 -70 138 -64 173 -68 7 -1 10 -7 6 -14 -4
-7 -3 -8 5 -4 6 4 19 2 28 -6 14 -11 15 -11 9 0 -6 10 0 9 23 -3 17 -9 37 -13
43 -9 7 5 8 3 3 -6 -6 -10 -4 -12 8 -7 9 3 19 2 21 -2 11 -17 -7 -20 -34 -6
-32 16 -44 4 -28 -27 5 -12 5 -18 -2 -18 -5 0 -10 7 -10 16 0 8 -4 12 -10 9
-5 -3 -10 -2 -10 3 0 5 -8 9 -17 9 -44 0 -46 2 -32 20 13 17 13 17 -7 1 -16
-14 -23 -15 -34 -5 -12 10 -12 9 -1 -5 17 -23 3 -23 -22 -1 -11 10 -17 12 -13
6 4 -7 2 -13 -4 -13 -7 0 -9 -8 -5 -20 4 -11 2 -21 -4 -21 -6 -1 -15 -3 -21
-4 -5 -1 -13 -3 -17 -4 -5 -1 -1 -5 7 -10 8 -6 19 -7 25 -3 5 4 24 7 40 8 17
1 25 -1 18 -3 -7 -2 -9 -12 -5 -21 5 -15 4 -15 -12 1 -22 21 -33 22 -33 2 0
-9 6 -14 14 -11 8 3 11 1 8 -4 -3 -6 -1 -10 4 -10 6 0 11 -4 11 -8 0 -5 -7 -9
-15 -9 -8 0 -12 4 -9 9 8 12 -10 10 -24 -4 -8 -8 -12 -9 -12 -1 0 6 3 13 8 16
4 2 2 2 -5 1 -7 -2 -10 3 -6 12 3 7 0 14 -5 14 -6 0 -9 -9 -7 -19 3 -14 -1
-18 -12 -14 -12 5 -12 7 -1 15 9 6 5 7 -12 3 l-25 -6 25 16 c14 9 17 14 8 11
-11 -3 -17 0 -15 7 1 7 -4 11 -11 9 -17 -3 -52 16 -52 30 0 6 11 3 25 -6 14
-9 25 -12 25 -7 0 9 -27 22 -58 27 -10 2 -9 -3 2 -21 20 -30 20 -35 1 -35 -8
0 -15 -4 -15 -10 0 -5 8 -7 18 -4 11 4 9 -1 -8 -16 l-25 -22 27 16 c33 19 44
21 30 3 -7 -8 -8 -18 -1 -27 8 -12 9 -11 7 4 -2 10 2 21 9 23 8 3 10 -5 7 -24
-3 -20 -2 -24 5 -13 5 8 7 18 4 24 -4 5 1 7 11 3 10 -4 20 -7 24 -7 3 0 -3 -7
-14 -16 -18 -15 -18 -15 3 -5 31 16 37 14 22 -6 -12 -16 -12 -17 2 -6 12 10
18 10 29 0 12 -10 12 -9 1 6 -15 19 -1 23 17 5 17 -17 390 -20 411 -4 10 7 13
7 8 0 -8 -13 591 -13 612 0 10 6 12 6 7 -2 -8 -14 20 -12 43 2 9 6 12 5 8 -1
-3 -5 29 -9 84 -9 49 1 89 5 89 10 0 4 -8 5 -17 2 -10 -4 -14 -4 -11 0 4 4 3
16 -3 27 -8 14 -8 18 0 13 6 -4 11 -2 11 5 0 8 4 8 13 2 18 -15 49 -12 43 4
-3 8 -2 11 3 8 5 -3 12 -1 16 5 3 5 3 10 -2 11 -4 0 -16 2 -26 4 -13 2 -17 -1
-13 -11 3 -8 1 -14 -4 -14 -15 0 -12 26 3 39 8 6 18 7 22 3 5 -4 5 1 2 11 -6
15 -4 16 14 6 17 -9 20 -8 13 3 -6 11 -5 11 9 -1 9 -7 14 -17 11 -22 -8 -13
10 -11 25 4 11 10 12 9 6 -2 -6 -10 -4 -12 6 -6 11 7 11 5 -1 -11 -13 -17 -13
-18 0 -9 9 6 4 -1 -10 -13 -25 -23 -25 -24 -1 -12 19 10 22 9 16 -1 -5 -8 -4
-10 3 -5 8 5 10 2 6 -8 -4 -10 -1 -16 7 -16 19 1 50 25 42 33 -3 4 -1 7 5 7 5
0 13 -5 15 -10 3 -6 4 -5 3 2 -2 7 -10 12 -19 12 -9 -1 -15 6 -14 17 1 11 7
19 15 19 7 0 11 -4 8 -8 -3 -5 6 -15 19 -22 14 -7 25 -17 25 -22 0 -4 5 -8 11
-8 8 0 8 5 -1 15 -17 20 -1 19 22 -2 17 -15 18 -15 13 0 -4 9 -15 19 -25 22
-10 3 -24 13 -32 22 -11 15 -11 16 7 9 16 -6 18 -5 8 5 -10 10 -16 10 -25 1
-8 -8 -17 -8 -30 -1 -10 5 -22 8 -27 5 -5 -3 -14 1 -21 9 -7 8 -22 14 -34 14
-17 -1 -18 -2 -3 -6 9 -2 15 -9 12 -14 -4 -5 -14 -5 -26 2 -17 9 -18 13 -7 27
12 15 11 16 -4 4 -9 -8 -21 -11 -26 -8 -6 3 -15 -1 -22 -9 -8 -10 -20 -13 -34
-9 -17 6 -19 4 -9 -7 8 -10 9 -19 1 -29 -8 -12 -9 -12 -4 3 3 11 0 20 -9 23
-8 4 -15 11 -15 17 0 6 3 7 6 4 4 -3 16 -2 27 4 15 9 18 8 12 -2 -5 -8 -4 -10
3 -5 19 11 14 25 -8 23 -11 -1 -20 -4 -20 -8 0 -10 -20 -6 -50 10 l-25 12 24
-19 c19 -15 21 -21 10 -28 -10 -6 -8 -10 11 -14 l25 -6 -26 -6 c-26 -5 -31 4
-16 28 4 8 -4 11 -26 10 -17 -2 -38 -1 -44 2 -14 4 -18 23 -5 21 4 -1 10 0 15
1 4 1 10 3 15 5 4 1 20 7 36 14 16 6 35 10 42 7 7 -3 14 0 16 5 2 6 10 11 18
13 14 3 50 16 90 33 8 3 17 7 20 7 3 1 15 7 28 14 12 7 22 9 22 5 0 -4 4 -3 8
3 7 11 97 55 109 53 3 0 10 6 15 15 5 9 13 14 19 11 5 -4 9 -2 9 3 0 11 60 38
73 34 5 -1 5 2 2 8 -4 7 2 14 14 17 12 3 21 9 21 12 0 4 21 22 48 39 26 17 59
43 75 57 16 15 32 23 40 19 6 -4 9 -4 5 0 -8 10 23 47 34 40 5 -3 7 -1 6 4 -4
15 72 83 84 76 7 -5 8 -2 3 6 -4 7 -3 15 2 19 5 3 19 19 31 35 12 16 22 25 22
21 0 -4 14 12 32 36 17 24 35 48 40 54 5 5 24 31 42 57 18 26 37 44 41 40 5
-4 5 -2 2 4 -4 6 14 43 38 83 24 39 39 69 32 66 -7 -4 -4 0 6 8 9 8 17 22 17
31 0 9 8 16 18 17 9 0 12 3 5 5 -8 4 -6 14 7 37 10 18 23 50 30 72 7 22 17 46
23 53 5 6 6 12 2 12 -4 0 -3 6 2 13 8 10 22 48 27 77 1 3 5 11 10 18 4 7 5 16
2 19 -3 3 2 19 10 35 9 17 11 27 5 24 -7 -4 -8 -1 -5 8 3 9 9 14 13 12 3 -2 7
8 7 22 2 49 10 98 18 110 4 7 4 12 -1 12 -4 0 -1 5 7 10 11 7 11 10 2 10 -7 0
-11 4 -8 9 8 12 18 126 16 174 0 21 3 36 8 33 5 -3 9 1 9 9 0 8 -4 12 -8 10
-4 -3 -7 21 -8 53 -2 88 -10 171 -16 182 -3 6 -1 10 6 10 8 0 8 4 1 13 -6 6
-11 30 -13 52 -1 22 -5 45 -8 50 -6 11 -9 26 -14 67 -2 15 -9 33 -15 41 -7 8
-9 17 -6 20 4 3 3 14 -1 24 -5 10 -9 23 -10 28 -8 33 -56 160 -65 170 -5 6 -7
15 -3 19 4 4 2 11 -5 15 -8 4 -15 14 -16 22 -5 27 -41 99 -49 99 -4 0 -6 4 -3
9 3 5 -1 14 -9 21 -8 7 -15 18 -15 25 0 7 -7 18 -16 26 -8 7 -13 20 -11 30 3
12 0 16 -10 12 -7 -3 -13 -2 -11 3 1 5 -20 40 -47 78 -28 38 -49 73 -47 78 1
5 -1 7 -6 4 -4 -2 -17 7 -28 21 -10 15 -42 51 -71 81 -29 31 -49 60 -46 65 3
6 1 7 -4 4 -6 -4 -31 12 -55 36 -61 57 -108 95 -140 115 -16 9 -28 20 -28 24
0 4 -7 8 -15 8 -9 0 -18 7 -21 15 -4 8 -10 12 -15 9 -5 -3 -9 0 -9 5 0 6 -7
11 -15 11 -8 0 -15 3 -15 8 0 4 -10 12 -23 18 -73 36 -182 99 -185 106 -2 4
-8 5 -13 2 -6 -3 -15 -1 -22 4 -7 5 -25 14 -42 20 -16 6 -53 19 -82 30 -28 11
-54 17 -57 14 -3 -3 -6 0 -6 7 0 7 -4 10 -8 7 -5 -3 -21 1 -36 9 -14 8 -24 10
-21 5 4 -6 1 -10 -4 -10 -6 0 -11 5 -11 10 0 6 -13 10 -30 10 -16 0 -30 4 -30
10 0 5 -6 7 -14 4 -8 -3 -24 -1 -35 6 -16 8 -21 8 -21 -2 0 -8 -3 -9 -8 -3 -4
6 -11 11 -17 12 -43 7 -127 15 -162 16 -24 1 -43 4 -43 7 0 8 -44 5 -58 -4 -7
-4 -12 -3 -12 3 0 6 -11 6 -30 1 -17 -5 -30 -5 -30 0 0 5 -6 7 -12 5 -28 -11
-77 -12 -81 -2 -2 8 -5 8 -10 1z m573 -3604 c0 -5 -5 -10 -11 -10 -5 0 -7 5
-4 10 3 6 8 10 11 10 2 0 4 -4 4 -10z m-840 -5 c0 -2 -10 -9 -22 -15 -22 -11
-22 -10 -4 4 21 17 26 19 26 11z m-217 -35 c4 0 6 4 5 9 -2 5 2 8 7 8 6 -1 9
-5 7 -10 -1 -4 10 -4 25 -1 16 4 25 3 21 -1 -13 -14 -106 -15 -111 0 -9 21 5
27 23 10 9 -8 20 -15 23 -15z m137 9 c0 -6 -4 -7 -10 -4 -5 3 -10 11 -10 16 0
6 5 7 10 4 6 -3 10 -11 10 -16z m896 8 c4 -3 -6 -5 -20 -3 -14 1 -29 5 -32 9
-3 3 6 4 20 3 15 -2 29 -6 32 -9z m-96 -11 c0 -3 -4 -8 -10 -11 -5 -3 -10 -1
-10 4 0 6 5 11 10 11 6 0 10 -2 10 -4z m177 -13 c0 -8 -4 -10 -12 -3 -7 5 -16
6 -20 2 -5 -4 -5 -2 -2 4 9 15 34 13 34 -3z m248 7 c4 -6 10 -8 14 -6 4 3 7
-12 6 -31 0 -21 -5 -37 -13 -39 -7 -1 -8 0 -2 3 7 3 4 10 -7 18 -17 13 -17 14
1 21 17 7 17 8 -5 25 -13 10 -19 19 -12 19 6 0 15 -5 18 -10z m91 -37 c-7 -7
-26 7 -26 19 0 6 6 6 15 -2 9 -7 13 -15 11 -17z m-1593 0 c-6 -16 -23 -17 -23
-2 0 5 -5 7 -12 3 -6 -4 -8 -3 -5 2 9 15 46 12 40 -3z m161 1 c3 -8 2 -12 -4
-9 -6 3 -10 10 -10 16 0 14 7 11 14 -7z m59 1 c9 2 17 -1 17 -6 0 -5 -10 -7
-22 -5 -13 3 -26 5 -30 5 -5 1 -8 6 -8 12 0 8 4 8 13 2 6 -6 20 -9 30 -8z
m102 -5 c3 -6 -1 -7 -9 -4 -18 7 -21 14 -7 14 6 0 13 -4 16 -10z m875 -2 c0
-4 -4 -8 -9 -8 -6 0 -12 4 -15 8 -3 5 1 9 9 9 8 0 15 -4 15 -9z m54 -4 c3 -8
2 -12 -4 -9 -6 3 -10 10 -10 16 0 14 7 11 14 -7z m59 -9 c-7 -21 -12 -19 -10
4 0 11 5 18 9 15 4 -3 5 -11 1 -19z m-1133 -27 c0 -3 -6 -9 -12 -12 -7 -2 -2
-3 12 -1 14 2 29 4 33 4 5 1 5 6 1 13 -5 7 -3 8 5 3 9 -5 10 -10 2 -18 -14
-14 -110 -17 -118 -4 -3 6 -1 7 5 3 7 -4 16 3 23 18 10 21 14 23 30 13 11 -7
19 -15 19 -19z m18 7 c-3 -3 -9 2 -12 12 -6 14 -5 15 5 6 7 -7 10 -15 7 -18z
m55 -5 c-3 -12 -8 -19 -11 -16 -5 6 5 36 12 36 2 0 2 -9 -1 -20z m907 16 c0
-2 -8 -10 -17 -17 -16 -13 -17 -12 -4 4 13 16 21 21 21 13z m80 -16 c0 -5 -7
-10 -16 -10 -9 0 -12 -5 -8 -12 5 -7 3 -8 -6 -3 -10 6 -9 11 5 22 22 16 25 16
25 3z m50 2 c0 -5 -12 -14 -27 -21 l-28 -12 25 21 c29 22 30 23 30 12z m-994
-24 c3 -4 -1 -5 -10 -4 -8 1 -18 5 -22 8 -3 4 1 5 10 4 8 -1 18 -5 22 -8z m59
2 c3 -5 1 -10 -4 -10 -6 0 -11 5 -11 10 0 6 2 10 4 10 3 0 8 -4 11 -10z m965
2 c0 -5 -7 -9 -15 -9 -8 0 -12 4 -9 9 7 10 24 10 24 0z"/>
<path d="M1307 36 c-4 -10 -1 -13 9 -9 15 6 19 23 5 23 -5 0 -11 -7 -14 -14z"/>
<path d="M1310 179 c0 -5 5 -7 10 -4 6 3 10 8 10 11 0 2 -4 4 -10 4 -5 0 -10
-5 -10 -11z"/>
<path d="M2477 179 c7 -7 15 -10 18 -7 3 3 -2 9 -12 12 -14 6 -15 5 -6 -5z"/>
<path d="M1215 169 c-4 -6 -5 -12 -2 -15 2 -3 7 2 10 11 7 17 1 20 -8 4z"/>
<path d="M1397 173 c-10 -9 -9 -23 1 -23 5 0 9 7 9 15 0 17 -1 18 -10 8z"/>
<path d="M1027 159 c7 -7 15 -10 18 -7 3 3 -2 9 -12 12 -14 6 -15 5 -6 -5z"/>
<path d="M1060 166 c0 -2 8 -10 18 -17 15 -13 16 -12 3 4 -13 16 -21 21 -21
13z"/>
<path d="M1175 159 c-4 -6 -5 -12 -2 -15 2 -3 7 2 10 11 7 17 1 20 -8 4z"/>
<path d="M1230 149 c-10 -17 -14 -18 -28 -7 -9 8 -13 8 -9 1 4 -6 1 -13 -5
-16 -10 -4 -10 -7 0 -18 11 -12 15 -11 27 4 9 13 14 14 17 6 3 -10 6 -10 12
-1 4 7 2 12 -4 12 -8 0 -8 6 0 20 6 11 8 20 6 20 -3 0 -10 -9 -16 -21z m-20
-29 c0 -5 -5 -10 -11 -10 -5 0 -7 5 -4 10 3 6 8 10 11 10 2 0 4 -4 4 -10z"/>
<path d="M1356 162 c-3 -5 1 -9 9 -9 8 0 15 4 15 9 0 4 -4 8 -9 8 -6 0 -12 -4
-15 -8z"/>
<path d="M2430 160 c0 -5 5 -10 11 -10 5 0 7 5 4 10 -3 6 -8 10 -11 10 -2 0
-4 -4 -4 -10z"/>
<path d="M953 145 c0 -8 10 -23 21 -32 21 -18 21 -18 4 2 -9 11 -17 24 -16 28
0 5 -2 11 -4 13 -3 2 -5 -3 -5 -11z"/>
<path d="M2677 149 c7 -7 15 -10 18 -7 3 3 -2 9 -12 12 -14 6 -15 5 -6 -5z"/>
<path d="M2715 150 c-4 -6 1 -7 11 -3 13 5 15 3 9 -7 -5 -9 -4 -11 4 -6 6 4 9
12 6 17 -8 12 -22 12 -30 -1z"/>
<path d="M995 141 c-3 -5 -2 -12 3 -15 5 -3 9 1 9 9 0 17 -3 19 -12 6z"/>
<path d="M1056 115 c4 -8 8 -15 10 -15 2 0 4 7 4 15 0 8 -4 15 -10 15 -5 0 -7
-7 -4 -15z"/>
<path d="M1090 115 c0 -8 4 -15 10 -15 5 0 7 7 4 15 -4 8 -8 15 -10 15 -2 0
-4 -7 -4 -15z"/>
<path d="M2800 120 c-8 -5 -12 -12 -9 -15 4 -3 12 1 19 10 14 17 11 19 -10 5z"/>
<path d="M2883 118 c-11 -19 -13 -39 -1 -32 5 3 7 9 4 12 -3 3 -1 11 5 19 6 7
9 13 6 13 -3 0 -9 -6 -14 -12z"/>
<path d="M2574 109 c-2 -4 5 -10 15 -14 19 -6 19 -7 -2 -28 -12 -12 -25 -21
-29 -19 -5 1 -8 -3 -8 -10 0 -9 -3 -9 -12 0 -14 14 -28 16 -28 3 0 -5 9 -11
21 -14 12 -3 19 -10 15 -15 -8 -13 32 -8 46 6 7 7 17 8 29 1 15 -8 17 -6 12 7
-4 12 -3 15 5 10 7 -4 12 -2 12 4 0 7 -6 10 -14 7 -22 -9 -26 3 -10 28 14 21
13 23 -3 21 -10 0 -17 4 -16 10 2 12 -25 15 -33 3z m41 -39 c-3 -5 -12 -10
-18 -10 -7 0 -6 4 3 10 19 12 23 12 15 0z m2 -35 c4 -4 3 -5 -3 -2 -7 4 -17 0
-24 -8 -6 -7 -18 -11 -26 -8 -12 4 -12 7 3 18 18 14 38 14 50 0z"/>
<path d="M2816 101 c-3 -4 0 -13 6 -21 8 -12 9 -11 4 4 -5 13 -2 17 9 13 8 -4
16 -3 19 1 3 4 -4 8 -14 9 -11 1 -22 -2 -24 -6z"/>
<path d="M955 81 c-3 -5 -2 -12 3 -15 5 -3 9 1 9 9 0 17 -3 19 -12 6z"/>
<path d="M1000 72 c-18 -15 -20 -19 -7 -19 10 0 15 3 12 5 -3 3 3 11 13 18 9
7 14 14 11 14 -4 0 -17 -8 -29 -18z"/>
<path d="M1036 74 c-5 -14 -4 -15 9 -4 17 14 19 20 6 20 -5 0 -12 -7 -15 -16z"/>
<path d="M1077 75 c3 -10 1 -15 -7 -13 -7 2 -15 -4 -17 -12 -4 -12 -3 -12 5
-2 5 8 13 13 18 12 5 0 10 6 12 14 2 9 -1 16 -7 16 -6 0 -8 -7 -4 -15z"/>
<path d="M2840 60 c-9 -6 -10 -10 -3 -10 6 0 15 5 18 10 8 12 4 12 -15 0z"/>
<path d="M2750 51 c0 -6 4 -13 10 -16 6 -3 7 1 4 9 -7 18 -14 21 -14 7z"/>
<path d="M2704 24 c-18 -14 -18 -15 4 -4 12 6 28 8 34 4 7 -4 8 -3 4 4 -10 16
-18 15 -42 -4z"/>
</g>
</svg>
